<?xml version="1.0" encoding="UTF-8"?>
<svg width="49px" height="33px" viewBox="0 0 49 33" version="1.1" xmlns="http://www.w3.org/2000/svg" xmlns:xlink="http://www.w3.org/1999/xlink">
    <!-- Generator: Sketch 39.1 (31720) - http://www.bohemiancoding.com/sketch -->
    <title>logo</title>
    <desc>Created with Sketch.</desc>
    <defs></defs>
    <g id="Page-1" stroke="none" stroke-width="1" fill="none" fill-rule="evenodd">
        <g id="Desktop-HD-验证状态" transform="translate(-380.000000, -84.000000)" fill="#FFFFFF">
            <g id="logo" transform="translate(380.421875, 84.206250)">
                <path d="M31.2009759,18.8823936 C32.7731621,16.2572765 35.6452182,14.5 38.9277083,14.5 C43.898271,14.5 47.9277083,18.5294373 47.9277083,23.5 C47.9277083,28.4705627 43.898271,32.5 38.9277083,32.5 C36.2425618,32.5 33.8320607,31.3241031 32.1830699,29.4591741 C33.6969546,29.7016135 35.0618542,29.8946748 35.9277083,30.1376953 C39,31 43.2465559,27.8609356 43.2465559,23.8188477 C43.2465559,19.7767597 40,16.5 35.9277083,17.5 C34.6453138,17.8149073 32.9381763,18.2743908 31.2009759,18.8823936 Z" id="Combined-Shape"></path>
                <path d="M17.9797051,27.0328465 C16.7358002,31.0730112 13.4099251,32 9.50244141,32 C4.53187866,32 0.502441406,27.9705627 0.502441406,23 C0.502441406,18.0294373 3,14 9.50244141,13 C11.0612543,12.7602727 12.3899098,12.7791567 13.5091742,13.0497636 C12.8255257,13.7173546 14.1662341,15.5759277 11.7771974,15.5759277 C7.82836135,15.5759277 4.62719727,18.7770918 4.62719727,22.7259278 C4.62719727,26.6747638 7.82836135,29.8759279 11.7771974,29.8759279 C14.4301787,29.8759279 16.7456853,28.8823942 17.9797051,27.0328465 Z" id="Combined-Shape"></path>
                <path d="M42.9997081,17.9918124 C43.0960932,17.1797462 43.0999288,16.347326 43,15.5 C41.9975586,7 34.562855,-1.77635684e-15 26.0024414,-1.77635684e-15 C17.6093267,-1.77635684e-15 10.7743057,6.67099168 10.5103533,15 L13.5024414,15 L13.5188931,14.9945161 C14.2627853,8.76054292 19.5681749,3.92724609 26.0024414,3.92724609 C32.6837567,3.92724609 38.1478425,9.13882478 38.5513082,15.7185915 C38.9977913,15.9109216 39.413363,16.2054608 40.0024414,16.5 C41.0015303,16.9995444 42.0006192,15.0036424 42.9997081,17.9918124 Z" id="Combined-Shape"></path>
            </g>
        </g>
    </g>
</svg>